C:\Users\supero\Documents\workspace_seguradora\SeguraTchan\src\main\java\com\seguradora\view\UsuarioView.java
C:\Users\supero\Documents\workspace_seguradora\SeguraTchan\src\main\java\com\seguradora\business\ContratacaoBusiness.java
C:\Users\supero\Documents\workspace_seguradora\SeguraTchan\src\main\java\com\seguradora\util\HibernateUtil.java
C:\Users\supero\Documents\workspace_seguradora\SeguraTchan\src\main\java\com\seguradora\dao\ContratacaoDao.java
C:\Users\supero\Documents\workspace_seguradora\SeguraTchan\src\main\java\com\seguradora\resources\HelloWorld.java
C:\Users\supero\Documents\workspace_seguradora\SeguraTchan\src\main\java\com\seguradora\types\TipoPagamento.java
C:\Users\supero\Documents\workspace_seguradora\SeguraTchan\src\main\java\com\seguradora\view\LoginView.java
C:\Users\supero\Documents\workspace_seguradora\SeguraTchan\src\main\java\com\seguradora\dao\VeiculoDao.java
C:\Users\supero\Documents\workspace_seguradora\SeguraTchan\src\main\java\com\seguradora\types\TipoResultadoCotacao.java
C:\Users\supero\Documents\workspace_seguradora\SeguraTchan\src\main\java\com\seguradora\entidade\Usuario.java
C:\Users\supero\Documents\workspace_seguradora\SeguraTchan\src\main\java\com\seguradora\util\JPAFilter.java
C:\Users\supero\Documents\workspace_seguradora\SeguraTchan\src\main\java\com\seguradora\entidade\Contratacao.java
C:\Users\supero\Documents\workspace_seguradora\SeguraTchan\src\main\java\com\seguradora\entidade\Perfil.java
C:\Users\supero\Documents\workspace_seguradora\SeguraTchan\src\main\java\com\seguradora\business\UsuarioBusiness.java
C:\Users\supero\Documents\workspace_seguradora\SeguraTchan\src\main\java\com\seguradora\dao\PerfilDao.java
C:\Users\supero\Documents\workspace_seguradora\SeguraTchan\src\main\java\com\seguradora\resources\Message.java
C:\Users\supero\Documents\workspace_seguradora\SeguraTchan\src\main\java\com\seguradora\business\CotacaoBusiness.java
C:\Users\supero\Documents\workspace_seguradora\SeguraTchan\src\main\java\com\seguradora\entidade\Cotacao.java
C:\Users\supero\Documents\workspace_seguradora\SeguraTchan\src\main\java\com\seguradora\dao\UsuarioDao.java
C:\Users\supero\Documents\workspace_seguradora\SeguraTchan\src\main\java\com\seguradora\dao\MarcaDao.java
C:\Users\supero\Documents\workspace_seguradora\SeguraTchan\src\main\java\com\seguradora\dao\CotacaoDao.java
C:\Users\supero\Documents\workspace_seguradora\SeguraTchan\src\main\java\com\seguradora\entidade\Marca.java
C:\Users\supero\Documents\workspace_seguradora\SeguraTchan\src\main\java\com\seguradora\types\TipoVeiculo.java
C:\Users\supero\Documents\workspace_seguradora\SeguraTchan\src\main\java\com\seguradora\view\HomeView.java
C:\Users\supero\Documents\workspace_seguradora\SeguraTchan\src\main\java\com\seguradora\entidade\Veiculo.java
C:\Users\supero\Documents\workspace_seguradora\SeguraTchan\src\main\java\com\seguradora\resources\NavigationController.java
